<?xml version="1.0" encoding="UTF-8" standalone="no"?>
<!-- Generator: Adobe Illustrator 19.0.0, SVG Export Plug-In . SVG Version: 6.00 Build 0)  -->

<svg
   xmlns:dc="http://purl.org/dc/elements/1.1/"
   xmlns:cc="http://creativecommons.org/ns#"
   xmlns:rdf="http://www.w3.org/1999/02/22-rdf-syntax-ns#"
   xmlns:svg="http://www.w3.org/2000/svg"
   xmlns="http://www.w3.org/2000/svg"
   xmlns:sodipodi="http://sodipodi.sourceforge.net/DTD/sodipodi-0.dtd"
   xmlns:inkscape="http://www.inkscape.org/namespaces/inkscape"
   version="1.1"
   id="Layer_1"
   x="0px"
   y="0px"
   viewBox="0 0 206.517 206.517"
   style="enable-background:new 0 0 206.517 206.517;"
   xml:space="preserve"
   inkscape:version="0.91 r13725"
   sodipodi:docname="denunciar.svg"><metadata
     id="metadata49"><rdf:RDF><cc:Work
         rdf:about=""><dc:format>image/svg+xml</dc:format><dc:type
           rdf:resource="http://purl.org/dc/dcmitype/StillImage" /></cc:Work></rdf:RDF></metadata><defs
     id="defs47" /><sodipodi:namedview
     pagecolor="#ffffff"
     bordercolor="#666666"
     borderopacity="1"
     objecttolerance="10"
     gridtolerance="10"
     guidetolerance="10"
     inkscape:pageopacity="0"
     inkscape:pageshadow="2"
     inkscape:window-width="1920"
     inkscape:window-height="1019"
     id="namedview45"
     showgrid="false"
     inkscape:zoom="1.1427631"
     inkscape:cx="24.219168"
     inkscape:cy="290.67361"
     inkscape:window-x="0"
     inkscape:window-y="0"
     inkscape:window-maximized="1"
     inkscape:current-layer="Layer_1" /><g
     id="g3-3"
     style="fill:#d23b34;fill-opacity:1"><g
       id="g5-6"
       style="fill:#d23b34;fill-opacity:1"><g
         id="g7-7"
         style="fill:#d23b34;fill-opacity:1"><path
           inkscape:connector-curvature="0"
           d="M 103.259,0 C 49.544,0 5.845,43.619 5.845,97.235 c 0,23.391 8.388,45.876 23.657,63.524 l -5.523,41.344 c -0.196,1.465 0.453,2.915 1.674,3.741 0.658,0.449 1.423,0.673 2.188,0.673 0.657,0 1.313,-0.164 1.908,-0.498 l 34.787,-19.528 c 12.232,5.297 25.248,7.983 38.722,7.983 53.715,0 97.414,-43.619 97.414,-97.239 C 200.673,43.619 156.974,0 103.259,0 Z"
           id="path9-5"
           style="fill:#d23b34;fill-opacity:1"
           sodipodi:nodetypes="sscccsscscs" /><path
           inkscape:connector-curvature="0"
           d="m 103.259,35.069 c -8.594,0 -15.586,6.994 -15.586,15.59 l 0,62.337 c 0,8.596 6.992,15.59 15.586,15.59 8.594,0 15.586,-6.994 15.586,-15.59 l 0,-62.337 c 0,-8.596 -6.992,-15.59 -15.586,-15.59 z m 7.793,77.927 c 0,4.3 -3.495,7.797 -7.793,7.797 -4.298,0 -7.793,-3.497 -7.793,-7.797 l 0,-62.337 c 0,-4.3 3.495,-7.797 7.793,-7.797 4.298,0 7.793,3.497 7.793,7.797 l 0,62.337 z"
           id="path11-3"
           style="fill:#d23b34;fill-opacity:1" /><path
           inkscape:connector-curvature="0"
           d="m 103.259,132.483 c -6.446,0 -11.69,5.244 -11.69,11.69 0,6.446 5.244,11.69 11.69,11.69 6.446,0 11.69,-5.244 11.69,-11.69 -0.001,-6.447 -5.244,-11.69 -11.69,-11.69 z m 0,15.586 c -2.148,0 -3.897,-1.746 -3.897,-3.897 0,-2.151 1.748,-3.897 3.897,-3.897 2.149,0 3.897,1.746 3.897,3.897 0,2.151 -1.749,3.897 -3.897,3.897 z"
           id="path13-5"
           style="fill:#d23b34;fill-opacity:1" /></g></g></g><g
     id="g3"
     style="fill:#444444;fill-opacity:1"><g
       id="g5"
       style="fill:#444444;fill-opacity:1"><g
         id="g7"
         style="fill:#444444;fill-opacity:1"><path
           d="M 103.259,0 C 49.544,0 5.845,43.619 5.845,97.235 c 0,23.391 8.388,45.876 23.657,63.524 l -5.523,41.344 c -0.196,1.465 0.453,2.915 1.674,3.741 0.658,0.449 1.423,0.673 2.188,0.673 0.657,0 1.313,-0.164 1.908,-0.498 l 34.787,-19.528 c 12.232,5.297 25.248,7.983 38.722,7.983 53.715,0 97.414,-43.619 97.414,-97.239 C 200.673,43.619 156.974,0 103.259,0 Z m 0,186.681 c -13.02,0 -25.569,-2.721 -37.302,-8.09 -1.13,-0.517 -2.443,-0.468 -3.529,0.145 l -29.69,16.667 4.726,-35.369 c 0.15,-1.134 -0.202,-2.272 -0.963,-3.12 -14.743,-16.416 -22.862,-37.607 -22.862,-59.677 0,-49.319 40.204,-89.442 89.621,-89.442 49.417,0 89.621,40.122 89.621,89.442 0,49.32 -40.206,89.444 -89.622,89.444 z"
           id="path9"
           style="fill:#444444;fill-opacity:1"
           inkscape:connector-curvature="0" /><path
           d="m 103.259,35.069 c -8.594,0 -15.586,6.994 -15.586,15.59 l 0,62.337 c 0,8.596 6.992,15.59 15.586,15.59 8.594,0 15.586,-6.994 15.586,-15.59 l 0,-62.337 c 0,-8.596 -6.992,-15.59 -15.586,-15.59 z m 7.793,77.927 c 0,4.3 -3.495,7.797 -7.793,7.797 -4.298,0 -7.793,-3.497 -7.793,-7.797 l 0,-62.337 c 0,-4.3 3.495,-7.797 7.793,-7.797 4.298,0 7.793,3.497 7.793,7.797 l 0,62.337 z"
           id="path11"
           style="fill:#444444;fill-opacity:1"
           inkscape:connector-curvature="0" /><path
           d="m 103.259,132.483 c -6.446,0 -11.69,5.244 -11.69,11.69 0,6.446 5.244,11.69 11.69,11.69 6.446,0 11.69,-5.244 11.69,-11.69 -0.001,-6.447 -5.244,-11.69 -11.69,-11.69 z m 0,15.586 c -2.148,0 -3.897,-1.746 -3.897,-3.897 0,-2.151 1.748,-3.897 3.897,-3.897 2.149,0 3.897,1.746 3.897,3.897 0,2.151 -1.749,3.897 -3.897,3.897 z"
           id="path13"
           style="fill:#444444;fill-opacity:1"
           inkscape:connector-curvature="0" /></g></g></g><g
     id="g15" /><g
     id="g17" /><g
     id="g19" /><g
     id="g21" /><g
     id="g23" /><g
     id="g25" /><g
     id="g27" /><g
     id="g29" /><g
     id="g31" /><g
     id="g33" /><g
     id="g35" /><g
     id="g37" /><g
     id="g39" /><g
     id="g41" /><g
     id="g43" /></svg>