<?xml version="1.0" encoding="UTF-8" standalone="no"?>
<!-- Generator: Adobe Illustrator 18.1.1, SVG Export Plug-In . SVG Version: 6.00 Build 0)  -->

<svg
   xmlns:dc="http://purl.org/dc/elements/1.1/"
   xmlns:cc="http://creativecommons.org/ns#"
   xmlns:rdf="http://www.w3.org/1999/02/22-rdf-syntax-ns#"
   xmlns:svg="http://www.w3.org/2000/svg"
   xmlns="http://www.w3.org/2000/svg"
   xmlns:sodipodi="http://sodipodi.sourceforge.net/DTD/sodipodi-0.dtd"
   xmlns:inkscape="http://www.inkscape.org/namespaces/inkscape"
   version="1.1"
   id="Capa_1"
   x="0px"
   y="0px"
   viewBox="0 0 32 32"
   style="enable-background:new 0 0 32 32;"
   xml:space="preserve"
   inkscape:version="0.91 r13725"
   sodipodi:docname="noticia.svg"><metadata
     id="metadata66"><rdf:RDF><cc:Work
         rdf:about=""><dc:format>image/svg+xml</dc:format><dc:type
           rdf:resource="http://purl.org/dc/dcmitype/StillImage" /></cc:Work></rdf:RDF></metadata><defs
     id="defs64" /><sodipodi:namedview
     pagecolor="#ffffff"
     bordercolor="#666666"
     borderopacity="1"
     objecttolerance="10"
     gridtolerance="10"
     guidetolerance="10"
     inkscape:pageopacity="0"
     inkscape:pageshadow="2"
     inkscape:window-width="1920"
     inkscape:window-height="967"
     id="namedview62"
     showgrid="false"
     inkscape:zoom="10.429825"
     inkscape:cx="6.1903963"
     inkscape:cy="8.2279162"
     inkscape:window-x="0"
     inkscape:window-y="31"
     inkscape:window-maximized="1"
     inkscape:current-layer="Capa_1" /><g
     id="g32" /><g
     id="g34" /><g
     id="g36" /><g
     id="g38" /><g
     id="g40" /><g
     id="g42" /><g
     id="g44" /><g
     id="g46" /><g
     id="g48" /><g
     id="g50" /><g
     id="g52" /><g
     id="g54" /><g
     id="g56" /><g
     id="g58" /><g
     id="g60" /><g
     style="fill:#ffffff;fill-opacity:1;stroke:#000000;stroke-width:0;stroke-miterlimit:4;stroke-dasharray:none;stroke-opacity:1"
     id="news-3"
     transform="translate(30.891104,-0.68351085)"><path
       inkscape:connector-curvature="0"
       id="path6-6"
       d="m -1.8911045,0.68351069 -21.9999995,0 c -1.657,0 -3,1.34200001 -3,3.00000001 l 0,2 -1,0 c -1.657,0 -3,1.342 -3,3 l 0,20.0000003 c 0,2.209 1.791,4 4,4 l 23.9999995,0 c 2.20900004,0 4,-1.791 4,-4 l 0,-25.0000003 c 0,-1.658 -1.34399996,-3.00000001 -3,-3.00000001 z M -0.89110446,28.683511 C 0.06266954,29.235524 -28.356591,20.61495 -27.297884,20.920799 l 12.20339,3.525424 C -14.034826,24.752349 -29.058671,6.8402737 -28.958901,7.937748 l 0.0678,0.7457627 c 0.04998,0.5497331 14.931332,18.5792513 14.627119,18.1186443 l -12.627119,-19.1186443 0,20.0000003 c 0,0.553 0.447,1 1,1 0.553,0 0.449102,-1.048166 1,-1 l 24.81355854,2.169492 C 0.47236054,29.901083 -24.087413,2.1675984 -23.891101,2.6835107 l 7.016949,18.4406783 c 0.195957,0.514978 0.657841,-1.310406 1.135593,-1.033898 z"
       style="fill:#ffffff;fill-opacity:1;stroke:#000000;stroke-width:0;stroke-miterlimit:4;stroke-dasharray:none;stroke-opacity:1"
       sodipodi:nodetypes="ssscsssssssssssssscssssssss" /></g><g
     style="fill:#444444;fill-opacity:1"
     id="news"><path
       inkscape:connector-curvature="0"
       id="path6"
       d="M 29,0 7,0 C 5.343,0 4,1.342 4,3 L 4,5 3,5 C 1.343,5 0,6.342 0,8 l 0,20 c 0,2.209 1.791,4 4,4 l 24,0 c 2.209,0 4,-1.791 4,-4 L 32,3 C 32,1.342 30.656,0 29,0 Z m 1,28 c 0,1.102 -0.898,2 -2,2 L 4,30 C 2.897,30 2,29.102 2,28 L 2,8 C 2,7.448 2.448,7 3,7 l 1,0 0,20 c 0,0.553 0.447,1 1,1 0.553,0 1,-0.447 1,-1 L 6,3 C 6,2.448 6.448,2 7,2 l 22,0 c 0.551,0 1,0.448 1,1 l 0,25 z"
       style="fill:#444444;fill-opacity:1" /><path
       inkscape:connector-curvature="0"
       id="path8"
       d="m 19.498,13.005 8,0 c 0.277,0 0.5,-0.224 0.5,-0.5 0,-0.276 -0.223,-0.5 -0.5,-0.5 l -8,0 c -0.275,0 -0.5,0.224 -0.5,0.5 0,0.276 0.225,0.5 0.5,0.5 z"
       style="fill:#444444;fill-opacity:1" /><path
       inkscape:connector-curvature="0"
       id="path10"
       d="m 19.498,10.005 8,0 c 0.277,0 0.5,-0.224 0.5,-0.5 0,-0.276 -0.223,-0.5 -0.5,-0.5 l -8,0 c -0.275,0 -0.5,0.224 -0.5,0.5 0,0.276 0.225,0.5 0.5,0.5 z"
       style="fill:#444444;fill-opacity:1" /><path
       inkscape:connector-curvature="0"
       id="path12"
       d="m 19.498,7.005 8,0 c 0.277,0 0.5,-0.224 0.5,-0.5 0,-0.276 -0.223,-0.5 -0.5,-0.5 l -8,0 c -0.275,0 -0.5,0.224 -0.5,0.5 0,0.276 0.225,0.5 0.5,0.5 z"
       style="fill:#444444;fill-opacity:1" /><path
       inkscape:connector-curvature="0"
       id="path14"
       d="m 16.5,27.004 -8,0 c -0.276,0 -0.5,0.225 -0.5,0.5 0,0.277 0.224,0.5 0.5,0.5 l 8,0 c 0.275,0 0.5,-0.223 0.5,-0.5 0,-0.275 -0.224,-0.5 -0.5,-0.5 z"
       style="fill:#444444;fill-opacity:1" /><path
       inkscape:connector-curvature="0"
       id="path16"
       d="m 16.5,24.004 -8,0 c -0.276,0 -0.5,0.225 -0.5,0.5 0,0.277 0.224,0.5 0.5,0.5 l 8,0 c 0.275,0 0.5,-0.223 0.5,-0.5 0,-0.275 -0.224,-0.5 -0.5,-0.5 z"
       style="fill:#444444;fill-opacity:1" /><path
       inkscape:connector-curvature="0"
       id="path18"
       d="m 16.5,21.004 -8,0 c -0.276,0 -0.5,0.225 -0.5,0.5 0,0.277 0.224,0.5 0.5,0.5 l 8,0 c 0.275,0 0.5,-0.223 0.5,-0.5 0,-0.275 -0.224,-0.5 -0.5,-0.5 z"
       style="fill:#444444;fill-opacity:1" /><path
       inkscape:connector-curvature="0"
       id="path20"
       d="m 27.5,27.004 -8,0 c -0.277,0 -0.5,0.225 -0.5,0.5 0,0.277 0.223,0.5 0.5,0.5 l 8,0 c 0.275,0 0.5,-0.223 0.5,-0.5 0,-0.275 -0.225,-0.5 -0.5,-0.5 z"
       style="fill:#444444;fill-opacity:1" /><path
       inkscape:connector-curvature="0"
       id="path22"
       d="m 27.5,24.004 -8,0 c -0.277,0 -0.5,0.225 -0.5,0.5 0,0.277 0.223,0.5 0.5,0.5 l 8,0 c 0.275,0 0.5,-0.223 0.5,-0.5 0,-0.275 -0.225,-0.5 -0.5,-0.5 z"
       style="fill:#444444;fill-opacity:1" /><path
       inkscape:connector-curvature="0"
       id="path24"
       d="m 27.5,21.004 -8,0 c -0.277,0 -0.5,0.225 -0.5,0.5 0,0.277 0.223,0.5 0.5,0.5 l 8,0 c 0.275,0 0.5,-0.223 0.5,-0.5 0,-0.275 -0.225,-0.5 -0.5,-0.5 z"
       style="fill:#444444;fill-opacity:1" /><path
       inkscape:connector-curvature="0"
       id="path26"
       d="m 27.5,15.004 -19,0 c -0.276,0 -0.5,0.224 -0.5,0.5 0,0.276 0.224,0.5 0.5,0.5 l 19,0 c 0.275,0 0.5,-0.224 0.5,-0.5 0,-0.276 -0.225,-0.5 -0.5,-0.5 z"
       style="fill:#444444;fill-opacity:1" /><path
       inkscape:connector-curvature="0"
       id="path28"
       d="m 27.5,18.004 -19,0 c -0.276,0 -0.5,0.225 -0.5,0.5 0,0.277 0.224,0.5 0.5,0.5 l 19,0 c 0.275,0 0.5,-0.223 0.5,-0.5 0,-0.275 -0.225,-0.5 -0.5,-0.5 z"
       style="fill:#444444;fill-opacity:1" /><path
       inkscape:connector-curvature="0"
       id="path30"
       d="m 9,13 7,0 c 0.553,0 1,-0.447 1,-1 l 0,-6.996 c 0,-0.553 -0.447,-1 -1,-1 l -7,0 c -0.553,0 -1,0.447 -1,1 L 8,12 c 0,0.552 0.447,1 1,1 z m 1,-7 5,0 0,5 -5,0 0,-5 z"
       style="fill:#444444;fill-opacity:1" /></g></svg>