<?xml version="1.0" encoding="UTF-8" standalone="no"?>
<!-- Generator: Adobe Illustrator 19.0.0, SVG Export Plug-In . SVG Version: 6.00 Build 0)  -->

<svg
   xmlns:dc="http://purl.org/dc/elements/1.1/"
   xmlns:cc="http://creativecommons.org/ns#"
   xmlns:rdf="http://www.w3.org/1999/02/22-rdf-syntax-ns#"
   xmlns:svg="http://www.w3.org/2000/svg"
   xmlns="http://www.w3.org/2000/svg"
   xmlns:sodipodi="http://sodipodi.sourceforge.net/DTD/sodipodi-0.dtd"
   xmlns:inkscape="http://www.inkscape.org/namespaces/inkscape"
   version="1.1"
   id="Layer_1"
   x="0px"
   y="0px"
   viewBox="0 0 512 512"
   style="enable-background:new 0 0 512 512;"
   xml:space="preserve"
   inkscape:version="0.91 r13725"
   sodipodi:docname="video.svg"><metadata
     id="metadata51"><rdf:RDF><cc:Work
         rdf:about=""><dc:format>image/svg+xml</dc:format><dc:type
           rdf:resource="http://purl.org/dc/dcmitype/StillImage" /></cc:Work></rdf:RDF></metadata><defs
     id="defs49" /><sodipodi:namedview
     pagecolor="#ffffff"
     bordercolor="#666666"
     borderopacity="1"
     objecttolerance="10"
     gridtolerance="10"
     guidetolerance="10"
     inkscape:pageopacity="0"
     inkscape:pageshadow="2"
     inkscape:window-width="1920"
     inkscape:window-height="967"
     id="namedview47"
     showgrid="false"
     inkscape:zoom="0.65186406"
     inkscape:cx="300.19758"
     inkscape:cy="16.158176"
     inkscape:window-x="0"
     inkscape:window-y="31"
     inkscape:window-maximized="1"
     inkscape:current-layer="Layer_1" /><g
     id="g5-6"
     style="fill:#ffffff"><g
       id="g7-7"
       style="fill:#ffffff"><path
         id="path11-3"
         d="M 469.333,0 42.667,0 C 19.14,0 0,19.14 0,42.667 L 0,469.334 C 0,492.86 19.14,512 42.667,512 l 426.667,0 C 492.86,512 512,492.86 512,469.333 L 512,42.667 C 512,19.14 492.86,0 469.333,0 Z m 25.6,469.333 c 0,14.123 -13.02284,16.8826 -27.13406,17.16266 L 42.667,494.933 c -14.111221,0.28006 412.33585,-0.57001 426.18131,-3.3561 l 35.28343,-7.09999 c 13.83664,-2.78432 -1.64007,-213.22011 -2.01312,-227.32918 L 496.94712,61.554803 C 496.57407,47.445734 494.934,28.553 494.934,42.667 l 0,426.666 z"
         inkscape:connector-curvature="0"
         sodipodi:nodetypes="ssssssssscssssssscc"
         style="fill:#ffffff" /></g></g><g
     id="g3"
     style="fill:#444444;fill-opacity:1"><g
       id="g5"
       style="fill:#444444;fill-opacity:1"><g
         id="g7"
         style="fill:#444444;fill-opacity:1"><path
           d="M452.267,443.733H186.163c-3.541-9.907-12.919-17.067-24.03-17.067c-11.11,0-20.489,7.159-24.03,17.067H76.8     c-4.71,0-8.533,3.823-8.533,8.533c0,4.71,3.823,8.533,8.533,8.533h61.312c3.533,9.916,12.911,17.067,24.021,17.067     c11.11,0,20.489-7.151,24.03-17.067h266.103c4.71,0,8.533-3.823,8.533-8.533C460.8,447.556,456.977,443.733,452.267,443.733z      M162.133,460.8c-4.702,0-8.533-3.831-8.533-8.533c0-4.702,3.831-8.533,8.533-8.533c4.702,0,8.533,3.831,8.533,8.533     C170.667,456.969,166.835,460.8,162.133,460.8z"
           id="path9"
           style="fill:#444444;fill-opacity:1" /><path
           d="M469.333,0H42.667C19.14,0,0,19.14,0,42.667v426.667C0,492.86,19.14,512,42.667,512h426.667     C492.86,512,512,492.86,512,469.333V42.667C512,19.14,492.86,0,469.333,0z M494.933,469.333c0,14.123-11.486,25.6-25.6,25.6     H42.667c-14.114,0-25.6-11.477-25.6-25.6V42.667c0-14.114,11.486-25.6,25.6-25.6h426.667c14.114,0,25.6,11.486,25.6,25.6V469.333     z"
           id="path11"
           style="fill:#444444;fill-opacity:1" /><path
           d="M217.634,154.761c-2.645-1.536-5.897-1.545-8.55-0.026c-2.654,1.519-4.284,4.344-4.284,7.398V281.6     c0,3.055,1.63,5.879,4.284,7.398c1.314,0.759,2.782,1.135,4.25,1.135c1.485,0,2.97-0.384,4.301-1.161l102.4-59.733     c2.62-1.527,4.232-4.335,4.232-7.373c0-3.029-1.613-5.837-4.232-7.373L217.634,154.761z M221.867,266.743V176.99l76.928,44.877     L221.867,266.743z"
           id="path13"
           style="fill:#444444;fill-opacity:1" /><path
           d="M452.267,34.133H59.733c-14.114,0-25.6,11.486-25.6,25.6v341.333c0,4.71,3.823,8.533,8.533,8.533h426.667     c4.71,0,8.533-3.823,8.533-8.533c0-4.71-3.823-8.533-8.533-8.533H51.2v-332.8c0-4.702,3.831-8.533,8.533-8.533h392.533     c4.702,0,8.533,3.831,8.533,8.533v307.2c0,4.71,3.823,8.533,8.533,8.533s8.533-3.823,8.533-8.533v-307.2     C477.867,45.619,466.381,34.133,452.267,34.133z"
           id="path15"
           style="fill:#444444;fill-opacity:1" /></g></g></g><g
     id="g17" /><g
     id="g19" /><g
     id="g21" /><g
     id="g23" /><g
     id="g25" /><g
     id="g27" /><g
     id="g29" /><g
     id="g31" /><g
     id="g33" /><g
     id="g35" /><g
     id="g37" /><g
     id="g39" /><g
     id="g41" /><g
     id="g43" /><g
     id="g45" /></svg>